A K Peters, Ltd
A R G Gantner Verlag K G
Abms-Assoc Brasileira Mecanica Solos Engenharia Geotecnica
Acad  Conferences Ltd
Acad Business Dabrowa Gornicza
Academia Press
Academia Scientiarm Finica
Academic Press
Academic Press Ltd-Elsevier Science Ltd
Addison-Wesley Publ Co
Agh-Univ Sci & Technol
Aica-Armenia, Inst Contemporary Art
Akad Verlag Gmbh
Akademische Verlagsgesellsch Aka Gmbh
Aldine-Transaction Publishers
Ambit Media As
Amer Anthropological Assoc
Amer Assoc Pharmaceutical Scientists
Amer Astronautical Soc
Amer Chemical Soc
Amer Fisheries Soc
Amer Geophysical Union
Amer Inst Aeronautics & Astronautics
Amer Mathematical Soc
Amer Ornithologists Union
Amer Philosophical Soc
Amer Psychiatric Press, Inc
Amer Soc Civil Engineers
Amer Soc Heating, Refrigerating And Air-Conditioning Engs
Amer Soc Mechanical Engineers
Amer Soc Microbiology
Amer Soc Plant Taxonomists
Amsterdam Univ Press
Analytic Press, Inc
Anderson Publ Co
Annual Reviews
Anthem Press
Apress
Artech House
Arts Extension Serv
Asclepion Publishing, Llc
Asers Publishing
Ashgate Publishing Ltd
Asm International
Asociacion Espanola Micologia
Assoc Australasian Palaeontologists
Astm International
Astronomical Soc Pacific
Ateneo De Manila Univ
Athabasca Univ Press
Atlantis Press
Auerbach Publications, Taylor & Francis Group
Australasian Inst Mining & Metallurgy
Australian Centre Int Agricultural Research
Australian Natl Univ
Austrian Acad Science Press
Baylor Univ
Baywood Publishing Co Inc
Birkhauser Boston
Birkhauser Verlag Ag
Blackwell Publ
Blackwell Science Publ
Bolyai Janos Matematika Tarsulat
Brandeis Univ Press
Brepols Publishers
Brill
British Psychological Soc
Brookings Inst
Brooks / Cole Publ Co
Bulletin Asia Inst
Burke Museum Natural History & Culture
Butterworth-Heinemann
C P Gillette Museum Arthropod Diversity
Ca Press
Cabi Publishing-C A B Int
Caister Academic Press
Cambridge International Science Publishing
Cambridge Philological Soc
Cambridge Univ Press
Camel Publishing House
Casa Editrice Scientifica Internazionale
Catena Verlag
Cbs-Knaw Fungal Biodiversity Centre
Center Philosophy Sciences Univ Lisbon
Central European Univ Press
Centre Information Studies
Centrum Pro Studium Demokracie & Kultury-Cdk
Chandos Publ
Channel View Publications
Chapman & Hall/Crc Press
Chartered Inst Management Accountants
Chemical Industry Press
Chemtec Publishing
Cie Central Bureau
Clame-Comite Latinoamericano Mat Educ
Cold Spring Harbor Laboratory Press
Comenius Univ Bratislava, Dept Archaeology
Computational Mechanics Publications Ltd
Comune Udine, Museo Friulano Storia Naturale
Conchbooks
Consejo Superior Investigaciones Cient, Csic
Consejo Superior Investigaciones Cientificas
Conservatoire & Jardin Botan Ville Geneve
Continuum Int Publishing Group
Cooper Ornitholigical Society
Copernicus An Imprint Of Springer, Ny
Corila
Crc Press-Taylor & Francis Group
Croatian Acad Sciences & Arts
Csiro Publishing
Cuadernos De Anuario Filosofico
Czech Acad Sciences, Prague, Inst Archaeology
Darlington Press
Dartmouth College Press
Das Es Salaam Univ Press Ltd
David Fulton Publ Ltd
Demos Medical Publications
Dept Fisheries & Oceans Fish Habitat Management Branch
Destech Publications, Inc
Deutschen Gesell Allgemeine & Angewandte Entomologie
Deutscher Kunstverlag Berlin
Deutsches Grunes Kreuz E V-German Green Cross
Dolling Und Galitz Verlag
Duke Univ Press
Dunedin Acad Press Ltd
E D P Sciences
E J Brill
E Schweizerbart'sche Verlagsbuchhandlung
Earthscan Publications Ltd
East-West Center
Ecole Polytechnique
Edicios Castro
Edinburgh Univ Press
Editions Rodopi B V
Editions Technip
Editura Cu/Art
Editura Excelsior Art
Edizioni Della Normale
Edizioni Minerva Medica
Edward Elgar Publishing Ltd
Eisenbrauns
Elsevier
Elsevier Academic Press Inc
Elsevier Butterworth-Heinemann
Elsevier North Holland
Elsevier Science Bv
Elsevier Science Ltd
Elsevier Science Publishers Bv Biomedical Division
Elsevier Scientific Publ Co
Elsevier/North-Holland
Embrapa Gado Leite
Embrapa Soja
Emerald Group Publishing Limited
Emerald Group Publishing Ltd
Equinox Publishing Ltd
Ernst & Sohn Verlag Architektur & Technische Wissenschaften Gmbh & Co Kg
Esa Publications Division C/O Estec
Esfera Caos Editores Lda
Europae Archaeologia Consilium-Eac
European Assoc Geoscientists & Engineers
European Forest Institute
European Mathematical Soc
European Respiratory Society
Ferdinand Schoningh
Fim De Seculo-Edicoes
Fisheries & Ocean Canada & Natural Resources Canada
Floristisch-Soziologische Arbeitsgemeinschaft E V
Focal Press
Fordham Univ Press
Forest History Soc
Forum Italicum
Fouque Literaturverlag
Freund Publ House Ltd
Fungal Diversity Press Ctr Res Fungal Diversity
Gabler Verlag/Springer Fachmedien
Gallaudet Univ Pr
Gangemi Editore S P A
Garland Science, Taylor & Francis
Geological Soc Amer Inc
Geological Soc Publishing House
Georgetown Univ Press
Global Academic Publishing
Global Oriental
Goecke & Evers
Gower Publ Co
Gulf Professional Publ
Gulf Publ Co
Gunter Narr Verlag
Harmattan
Hart Publ
Hart Publishing Ltd
Harvard Univ Press
Haworth Press Inc
Heinz Nixdorf Inst, Univ Paderborn
Humana Press Inc
Idea Group Publishing
Ieee
Igi Global
Il Poligrafo
Imperial Coll Press
Independent Inst
Indian Natl Science Acad
Infonortics Ltd
Information Age Publishing-Iap
Information Today Inc
Innsbruck Univ Press
Inst Badawczy Lesnictwa
Inst Botanica-Sao Paulo
Inst Latinoamericano Altos Estudios-Ilae
Inst Natl Etudes Demographiques ( Ined )
Inst Southeast Asian Studies
Institute Study Man Inc
Instytut Biologii Doswiadczalnej Im Marcelgo Nenckiego
Int Bureau Fiscal Documentation
Int Glaciological Soc
Int Monetary Fund
Int Ocean Colour Coordinating Group-Ioccg
Int Organization Migration
Int Scientific Publications
Intech Europe
Intellect Ltd
Inter-American Development Bank
Intervarsity Press
Iop Publishing Ltd
Ios Press
Island Press
Iste Ltd
Iwa Publishing
J Cramer
Jai Press Inc
Jai-Elsevier Ltd
Jai-Elsevier Sci Bv
Jai-Elsevier Science Inc
Johann Heinrich Von Thunen Inst
John Benjamins B V Publ
John Wiley & Sons
John Wiley & Sons Inc
John Wiley & Sons Ltd
Johns Hopkins Univ Press
Jones & Bartlett Publishers
K G Saur Verlag Kg
Karger
Kluwer Academic Publishers
Kluwer Academic/Plenum Publ
Koeltz Scientific Books
Kogan Page Ltd
Koninklijk Inst Taal- Land- Envolkenkunde (Kitlv Press)
Landes Bioscience
Landlinks Press
Lars Muller Publ
Lawrence Erlbaum Assoc Publ
Legenda-European Humanities Research Centre
Legenda-Modern Humanities Res Assn
Leiden Univ Press
Lincoln Inst Land Policy
Lippincott Williams & Wilkins
Lit Verlag
Louisiana State Univ Press
Lynx House Press
M E Sharpe Inc
M I T Press
Macn-Museo Argentino Ciencias Naturales
Magnolia Press
Manaaki Whenua Press, Landcare Research
Maney Publishing
Mann Gebr Verlag Gmbh & Co
Martin Striz Publishing
Martinus Nijhoff
Mary Ann Liebert Inc
Matfyzpress Publ House, Fac Math & Physics
Mathematical Assoc America Service Center
Max Rubner-Institut
Mcgill-Queens Univ Pr
Metropolitni Univ Praha, Ops
Mineralogical Soc Amer
Mineralogical Society Great Britain & Ireland
Mit Press
Mohr Siebeck
Monash Univ Publishing
Monduzzi Editore S P A
Mongol Gazar, Scientific Div
Morgan Kaufmann Pub Inc
Mountain Press Publ Co
Mouton De Gruyter
Multilingual Matters Ltd
Museu Nacional-Univ Federal Do Rio De Janeiro
Muzeum Beskyd
Nabu Waldeck-Frankenberg
Natl Academies Press
Natl Academy Sciences Ukraine, S P Timoshenko Inst Mechanics
Natl Botanical Garden Belgium
Natura Optima Dux Foundation
Natural Energy Works
Naturalis Biodiversity Center
New Zealand Freshwater Sciences Soc
Newnes
North Holland, Elsevier Science Publ Bv
Northeastern Univ Pr
North-European Scientific Publishers-Nesp
Nottingham Univ Press
Nova Science Publishers, Inc
Nsta Press
Ohio Univ Press
Oldenbourg Wissenschaftsverlag Gmbh
Oxford Fajar Sdn Bhd -008974-T
Oxford Univ Press
Pabst Science Publishers
Palacky Univ
Palaeontological Assoc
Palgrave
Pallas Publications
Palmenia Centre Continuing Education
Pan Stanford Publishing Pte Ltd
Penerbit Univ Kebangsaan Malaysia
Pennsylvania State Univ Press
Pensoft Publishers
Pergamon-Elsevier Science Ltd
Philosophy Documentation Ctr
Physica-Verlag Gmbh & Co
Pickering & Chatto Publ
Policy Press
Polish Acad Science, Inst Systematics Evolution Animals
Polish Acad Sciences, Museum & Inst Zoology, Pan-Muzeum I Instytut Zoologii
Polskie Towarzystwo Entomologiczne
Poly Press
Pontificia Univ Catolica Chile, Fac Teologia
Portland Press Ltd
Praxis Publishing Ltd
Presses Univ Mirail
Princeton Univ Press
Productivity Press
Professional & Higher
Prometheus Books
Proquest Info & Learning
Proverse Hong Kong
Psychology Press
Publications Scientiques Du Museum
Purdue Univ Press
Quintessence Publishing Co Inc
Real Soc Espanola Hist Natural
Renaissance Inst
Resources For The Future Inc
Resources For The Future Press
Rosenberg & Sellier
Routledge
Routledge & Kegan Paul Inc
Rowman & Littlefield Publ Inc
Royal Coll Psychiatrists
Royal Historical Soc
Royal Soc Chemistry
S E P M - Soc Sedimentary Geology
Sae International
Sage Publications Inc
Science History Publications/ Usa
Science Press Beijing
Science Publishers Inc
Scientific Publishers
Scrivener Publishing Llc
Scuola Normale Superiore
Sea - Soc Entomol Aragonesa
Senckenbergische Naturforschende Gesellschaft
Sense Publishers
Serbian Acad Sciences Arts
Siam
Siam Soc Royal Patronage
Silkworm Books
Simon And Schuster
Sinauer Assoc
Slack Inc
Slovak Acad Sciences
Slovak Academy Sciences Mathematical Institute
Slovenska Akademija Znanosti Umetnosti
Soc Chimica Italiana
Soc Economic Geologists, Inc
Soc Mining Metallurgy & Exploration Inc
Soc Nautical Research
Soc Promotion Science & Scholarship-Sposs
Social Insurance Inst
Societe Mathematique France
South African Natl Biodiversity Inst
South Dakota Acad Science
Spektrum Akademischer Verlag Gmbh
Spinger-Verlag Iberica
Spon Press
Springer
Springer Basel Ag
Springer India
Springer Int Publishing Ag
Springer Publishing Co
Springer Verlag Paris
Springer Vs/Springer Fachmedien
Springer-Verlag Berlin
Springer-Verlag France
Springer-Verlag Italia
Springer-Verlag London Ltd
Springer-Verlag Tokyo
Springer-Verlag Wien
St Joseph Univ Press
Stanford Univ Press
Steinkopff Darmstadt
Studium Press Llc
Suna & Inan Kirac Res Inst Mediterranean Civilizations
Suomalainen Tiedeakatemia-Academia Scientiarum Fennica
Suomen Historiallinen Seura
Surrey Beatty & Sons
Sydney Univ Press
Symposium Books
Syngress
Taylor & Francis Ltd
Techne Press
Technical Research Centre Finland
Temple Univ Press
Times Mirror / Mosby Coll Publ
Tmc Asser Press
Trans Tech Publications Ltd
Transaction Publishers
Transnational Pubs Inc
Tsinghua Univ
Tsinghua Univ Press
Uitgeverij Waanders Bv
United States Institute Of  Peace
Univ Adelaide Press
Univ Alaska Press
Univ Alberta Dept Animal Science
Univ British Columbia Press
Univ Calgary Press
Univ California Press
Univ Chicago Press
Univ Chile, Faculty Arts
Univ Coimbra
Univ Georgia Press
Univ Guadalajara
Univ Illinois Press
Univ Innsbruck Inst Vergleichende Sprachwissenschaft
Univ Ljubljani, Fak Filozofska
Univ Manitoba
Univ Minnesota Press
Univ Nacional Autonoma Mexico
Univ Nebraska Press
Univ New Hampshire Press
Univ New Mexico Press
Univ North Carolina Press
Univ North Texas Press
Univ Notre Dame Press
Univ Palackeho V Olomouci
Univ Pennsylvania Museum Archaeology & Anthropology
Univ Pennsylvania Press
Univ Pittsburgh Press
Univ Press Colorado
Univ Press Kentucky
Univ Press Mississippi
Univ Press New England
Univ Press Southern Denmark
Univ Press Virginia
Univ Tartu Press
Univ Wales Press
Univ Washington Press
Univ West Bohemia
Univ Winter Gmbh
University Of Washington Press
Urban Land Institute
Us Inst Peace
Usda Forest Service
Utah State Univ Press
Vanderbilt Univ Press
Veb Verlag Volk Gesundheit Berlin
Verlag Osterreichischen Akad Wissenschaften
Verlag Paul Parey
Versita, Versita Ltd
Vieweg-Teubner Verlag Gmbh
Vilnius Gediminas Technical Univ Press, Technika
Vit Kabourek
Vojnotehnicki Institut
Vs Verlag Sozialwissenschaften-Gwv Fachverlage Gmbh
Vsb-Tech Univ Ostrava
Vydavatelstvi A Nakladatelstvi Ales Cenek
W Bertelsmann Verlag Gmbh & Co Kg
Wageningen Acad Publ
Walter De Gruyter & Co
Walter De Gruyter Gmbh
Wellcome Inst History Medicine
Westdeutscher Verlag Gmbh
White Horse Press
Whittles Publ Services
Wiley Periodicals
Wiley-Blackwell
Wiley-Liss, Inc
Wiley-V C H Verlag Gmbh
Wiley-Vch, Inc
Wilfrid Laurier Univ Press
Willan Publ
William Andrew Inc
Wit Press
Wit Press/Computational Mechanics Publications
Wits Univ Press
Woodhead Publ Ltd
World Bank Inst
World Century Publishing Corp
World Coll
World Health Organization
World Scientific And Engineering Acad And Soc
World Scientific Publ Co Pte Ltd
Wydawnictwo Naukowe Uam,
Wydawnictwo Univ Jagiellonskeg
Yale Univ Press
Zip Publishing
Zone Books
Zrc Publishing
